// Jest Snapshot v1, https://goo.gl/fbAQLP

exports[`>>> Component: CASH SPLIT +++ renders the Cash Split as expected 1`] = `
<GridNB
  style={
    Object {
      "paddingBottom": 2,
      "paddingTop": 2,
    }
  }
>
  <ColumnNB
    style={
      Object {
        "paddingLeft": 7,
        "paddingRight": 7,
      }
    }
  >
    <Styled(Body)>
      <Styled(Text)>
        TF
      </Styled(Text)>
    </Styled(Body)>
  </ColumnNB>
  <ColumnNB
    style={
      Object {
        "paddingLeft": 7,
        "paddingRight": 7,
      }
    }
  >
    <Styled(Body)>
      <Styled(Text)
        style={
          Object {
            "alignSelf": "flex-end",
          }
        }
      >
        700
      </Styled(Text)>
    </Styled(Body)>
  </ColumnNB>
</GridNB>
`;
