// Jest Snapshot v1, https://goo.gl/fbAQLP

exports[`>>> Component: CASH SPLIT SUMMARY +++ renders the CashSplitSummary as expected 1`] = `
<GridNB>
  <RowNB>
    <CashSplit
      name="Cleaner Fee"
      value={300}
    />
  </RowNB>
  <RowNB>
    <CashSplit
      name="Payment"
      value={345}
    />
  </RowNB>
  <RowNB>
    <CashSplit
      name="3% Transaction Fee"
      value={11}
    />
  </RowNB>
  <RowNB>
    <CashSplit
      name="Profit"
      value={34}
    />
  </RowNB>
</GridNB>
`;
