// Jest Snapshot v1, https://goo.gl/fbAQLP

exports[`>>> Component: TRANSACTION CARD +++ renders the CashSplitSummary as expected 1`] = `
<Styled(Card)>
  <Styled(CardItem)
    header={true}
    style={
      Object {
        "backgroundColor": "#f7f7f7",
      }
    }
  >
    <Styled(Left)>
      <Styled(Body)>
        <Styled(H3)
          style={
            Object {
              "color": "#0d0d0d",
              "padding": 2,
            }
          }
        >
          000000123121
        </Styled(H3)>
        <Styled(Text)
          note={true}
          style={
            Object {
              "color": "#333333",
              "padding": 2,
            }
          }
        >
          2015-11-25 08:00:00
        </Styled(Text)>
      </Styled(Body)>
    </Styled(Left)>
  </Styled(CardItem)>
  <Styled(CardItem)>
    <CashSplitSummary
      transaction={
        Object {
          "cleanerFee": 300,
          "date": 2015-11-25T00:00:00.000Z,
          "id": "000000123121",
        }
      }
    />
  </Styled(CardItem)>
</Styled(Card)>
`;
